%YAML 1.1
%TAG !u! tag:unity3d.com,2011:
--- !u!21 &2100000
Material:
  serializedVersion: 6
  m_ObjectHideFlags: 0
  m_PrefabParentObject: {fileID: 0}
  m_PrefabInternal: {fileID: 0}
  m_Name: Sebastian_Staff
  m_Shader: {fileID: 45, guid: 0000000000000000f000000000000000, type: 0}
  m_ShaderKeywords: _EMISSION _NORMALMAP _SPECGLOSSMAP
  m_LightmapFlags: 1
  m_CustomRenderQueue: -1
  stringTagMap: {}
  m_SavedProperties:
    serializedVersion: 2
    m_TexEnvs:
    - first:
        name: _AnimatedAlbedo
      second:
        m_Texture: {fileID: 0}
        m_Scale: {x: 1, y: 1}
        m_Offset: {x: 0, y: 0}
    - first:
        name: _AnimatedEmission
      second:
        m_Texture: {fileID: 0}
        m_Scale: {x: 1, y: 1}
        m_Offset: {x: 0, y: 0}
    - first:
        name: _BumpMap
      second:
        m_Texture: {fileID: 2800000, guid: 5de1e39d8681dcf4b862b45af4c44ba4, type: 3}
        m_Scale: {x: 1, y: 1}
        m_Offset: {x: 0, y: 0}
    - first:
        name: _DetailAlbedoMap
      second:
        m_Texture: {fileID: 0}
        m_Scale: {x: 1, y: 1}
        m_Offset: {x: 0, y: 0}
    - first:
        name: _DetailMask
      second:
        m_Texture: {fileID: 0}
        m_Scale: {x: 1, y: 1}
        m_Offset: {x: 0, y: 0}
    - first:
        name: _DetailNormalMap
      second:
        m_Texture: {fileID: 0}
        m_Scale: {x: 1, y: 1}
        m_Offset: {x: 0, y: 0}
    - first:
        name: _EmissionMap
      second:
        m_Texture: {fileID: 0}
        m_Scale: {x: 1, y: 1}
        m_Offset: {x: 0, y: 0}
    - first:
        name: _MainTex
      second:
        m_Texture: {fileID: 2800000, guid: 36ac4b5d590fee44a9010feeeda7971d, type: 3}
        m_Scale: {x: 1, y: 1}
        m_Offset: {x: 0, y: 0}
    - first:
        name: _MetallicGlossMap
      second:
        m_Texture: {fileID: 0}
        m_Scale: {x: 1, y: 1}
        m_Offset: {x: 0, y: 0}
    - first:
        name: _OcclusionMap
      second:
        m_Texture: {fileID: 2800000, guid: 9af5f521aa16c7d41b6785ccd0ed8a3d, type: 3}
        m_Scale: {x: 1, y: 1}
        m_Offset: {x: 0, y: 0}
    - first:
        name: _ParallaxMap
      second:
        m_Texture: {fileID: 0}
        m_Scale: {x: 1, y: 1}
        m_Offset: {x: 0, y: 0}
    - first:
        name: _SpecGlossMap
      second:
        m_Texture: {fileID: 2800000, guid: 69439578ab2f17048a229a194c2c40c2, type: 3}
        m_Scale: {x: 1, y: 1}
        m_Offset: {x: 0, y: 0}
    - first:
        name: _TransmissionThicknessMap
      second:
        m_Texture: {fileID: 0}
        m_Scale: {x: 1, y: 1}
        m_Offset: {x: 0, y: 0}
    m_Floats:
    - first:
        name: _AnimatedRandomRowOffset
      second: 1
    - first:
        name: _BumpScale
      second: 1
    - first:
        name: _CullMode
      second: 2
    - first:
        name: _Cutoff
      second: 0.5
    - first:
        name: _DetailMode
      second: 0
    - first:
        name: _DetailNormalMapScale
      second: 1
    - first:
        name: _DstBlend
      second: 0
    - first:
        name: _GlossMapScale
      second: 1
    - first:
        name: _Glossiness
      second: 0.5
    - first:
        name: _GlossyReflections
      second: 1
    - first:
        name: _HasAnimatedAlbedo
      second: 0
    - first:
        name: _HasAnimatedEmission
      second: 0
    - first:
        name: _LightProbeScale
      second: 1
    - first:
        name: _MetaDiffuseScale
      second: 1
    - first:
        name: _MetaEmissionScale
      second: 1
    - first:
        name: _MetaMetallicSoup
      second: 1
    - first:
        name: _MetaSpecularScale
      second: 1
    - first:
        name: _MetaUseCustom
      second: 0
    - first:
        name: _Metallic
      second: 0
    - first:
        name: _Mode
      second: 0
    - first:
        name: _OcclusionStrength
      second: 0.783
    - first:
        name: _Parallax
      second: 0.02
    - first:
        name: _ReflectionProbeBoost
      second: 1
    - first:
        name: _SmoothnessTextureChannel
      second: 0
    - first:
        name: _SpecularHighlights
      second: 1
    - first:
        name: _SrcBlend
      second: 1
    - first:
        name: _Translucency
      second: 0
    - first:
        name: _TransmissionThicknessScale
      second: 1
    - first:
        name: _UVDetailMask
      second: 0
    - first:
        name: _UVSec
      second: 0
    - first:
        name: _VertexOcclusionPower
      second: 1
    - first:
        name: _ZWrite
      second: 1
    m_Colors:
    - first:
        name: _AnimatedFrameSize
      second: {r: 0.125, g: 0.25, b: 0, a: 0}
    - first:
        name: _AnimatedRowsColsTotal
      second: {r: 8, g: 4, b: 0, a: 0}
    - first:
        name: _AnimatedUVRange
      second: {r: 0.5, g: 0.05, b: 0.05, a: 0.1}
    - first:
        name: _AnimatedUVScaleOffset
      second: {r: 1, g: 1, b: 0, a: 0}
    - first:
        name: _Color
      second: {r: 1, g: 1, b: 1, a: 1}
    - first:
        name: _EmissionColor
      second: {r: 0, g: 0, b: 0, a: 1}
    - first:
        name: _MetaDiffuseAdd
      second: {r: 0, g: 0, b: 0, a: 1}
    - first:
        name: _MetaDiffuseTint
      second: {r: 1, g: 1, b: 1, a: 1}
    - first:
        name: _MetaEmissionAdd
      second: {r: 0, g: 0, b: 0, a: 1}
    - first:
        name: _MetaEmissionTint
      second: {r: 1, g: 1, b: 1, a: 1}
    - first:
        name: _MetaSpecularAdd
      second: {r: 0, g: 0, b: 0, a: 1}
    - first:
        name: _MetaSpecularTint
      second: {r: 1, g: 1, b: 1, a: 1}
    - first:
        name: _SpecColor
      second: {r: 0.19999996, g: 0.19999996, b: 0.19999996, a: 1}
